.Xil/Vivado-1596-little_handsome/hw_ila_data_1/zip_work/waveform.vcd
$date
        2023-Dec-12 02:50:58
$end
$version
        Vivado v2023.1 (64-bit)
$end
$timescale
        1ps
$end
$scope module dut $end
$var reg 2 " wr_en1 [1:0] $end
$var reg 1 $ <const0>_1 $end
$var reg 1 % <const0>_2 $end
$var reg 1 & <const0>_3 $end
$var reg 1 ' <const0>_4 $end
$var reg 1 ( <const0>_5 $end
$var reg 1 ) <const0>_6 $end
$var reg 1 * <const0>_7 $end
$var reg 1 + <const0>_8 $end
$var reg 2 , step2_en [1:0] $end
$var reg 1 . <const0>_9 $end
$var reg 1 / <const0>_10 $end
$var reg 1 0 <const0>_11 $end
$var reg 1 1 <const0>_12 $end
$var reg 1 2 <const0>_13 $end
$var reg 1 3 <const0>_14 $end
$var reg 1 4 <const0>_15 $end
$var reg 1 5 <const0>_16 $end
$var reg 1 6 <const0>_17 $end
$var reg 1 7 <const0>_18 $end
$var reg 1 8 <const0>_19 $end
$var reg 1 9 <const0>_20 $end
$var reg 1 : <const0>_21 $end
$var reg 1 ; <const0>_22 $end
$var reg 1 < <const0>_23 $end
$var reg 1 = <const0>_24 $end
$var reg 1 > <const0>_25 $end
$var reg 1 ? <const0>_26 $end
$var reg 1 @ <const0>_27 $end
$var reg 1 A <const0>_28 $end
$var reg 1 B <const0>_29 $end
$var reg 1 C <const0>_30 $end
$var reg 1 D <const0>_31 $end
$var reg 1 E <const0>_32 $end
$var reg 1 F <const0>_33 $end
$var reg 1 G <const0>_34 $end
$var reg 1 H <const0>_35 $end
$var reg 1 I <const0>_36 $end
$var reg 1 J <const0>_37 $end
$var reg 1 K <const0>_38 $end
$var reg 1 L step3_en $end
$var reg 1 M <const0>_39 $end
$var reg 1 N <const0>_40 $end
$var reg 1 O <const0>_41 $end
$var reg 1 P <const0>_42 $end
$var reg 1 Q <const0>_43 $end
$var reg 1 R <const0>_44 $end
$var reg 1 S <const0>_45 $end
$var reg 1 T <const0>_46 $end
$var reg 1 U <const0>_47 $end
$var reg 1 V <const0>_48 $end
$var reg 1 W <const0>_49 $end
$var reg 1 X <const0>_50 $end
$var reg 1 Y <const0>_51 $end
$var reg 1 Z <const0>_52 $end
$var reg 1 [ <const0>_53 $end
$var reg 1 \ <const0>_54 $end
$var reg 1 ] <const0>_55 $end
$var reg 1 ^ <const0>_56 $end
$var reg 1 _ <const0>_57 $end
$var reg 1 ` <const0>_58 $end
$var reg 1 a <const0>_59 $end
$var reg 1 b <const0>_60 $end
$var reg 1 c <const0>_61 $end
$var reg 1 d <const0>_62 $end
$var reg 1 e <const0>_63 $end
$var reg 1 f <const0>_64 $end
$var reg 1 g <const0>_65 $end
$var reg 1 h <const0>_66 $end
$var reg 1 i <const0>_67 $end
$var reg 1 j <const0>_68 $end
$var reg 1 k <const0> $end
$var reg 1 l _TRIGGER $end
$var reg 1 m _WINDOW $end
$var reg 1 n _GAP $end
$upscope $end
$enddefinitions $end
#0
$dumpvars
b0 "
0$
0%
0&
0'
0(
0)
0*
0+
b1 ,
0.
0/
00
01
02
03
04
05
06
07
08
09
0:
0;
0<
0=
0>
0?
0@
0A
0B
0C
0D
0E
0F
0G
0H
0I
0J
0K
1L
0M
0N
0O
0P
0Q
0R
0S
0T
0U
0V
0W
0X
0Y
0Z
0[
0\
0]
0^
0_
0`
0a
0b
0c
0d
0e
0f
0g
0h
0i
0j
0k
0l
1m
0n
$end
#19
b1 "
#20
b0 "
#149
b1 "
#150
b0 "
#279
b1 "
#280
b0 "
#409
b1 "
#410
b0 "
#539
b1 "
#540
b0 "
#669
b1 "
#670
b0 "
#799
b1 "
#800
b0 "
#929
b1 "
#930
b0 "
#1024
1l
#1059
b1 "
#1060
b0 "
#1189
b1 "
#1190
b0 "
#1319
b1 "
#1320
b0 "
#1449
b1 "
#1450
b0 "
#1579
b1 "
#1580
b0 "
#1709
b1 "
#1710
b0 "
#1839
b1 "
#1840
b0 "
#1969
b1 "
#1970
b0 "
